<svg xmlns="http://www.w3.org/2000/svg" width="54" height="54" viewBox="0 0 54 54">
  <defs>
    <style>
      .cls-1 {
        fill: #7b8fa5;
        fill-rule: evenodd;
        opacity: 0.36;
      }
    </style>
  </defs>
  <path id="иконка" class="cls-1" d="M739.113,818.8H726.572a1.055,1.055,0,0,0,0,2.11h12.541A1.055,1.055,0,0,0,739.113,818.8Zm-21.088.309a1.055,1.055,0,1,0,.309.746A1.066,1.066,0,0,0,718.025,819.105Zm-4.011,0a1.055,1.055,0,1,0,.309.746A1.063,1.063,0,0,0,714.014,819.105Zm8.021,0a1.055,1.055,0,1,0,.309.746A1.066,1.066,0,0,0,722.035,819.105Zm1.977,10.238H716.2a1.055,1.055,0,1,0,0,2.109h7.816A1.055,1.055,0,1,0,724.012,829.343Zm12.5,0h-7.816a1.055,1.055,0,1,0,0,2.109h7.816A1.055,1.055,0,1,0,736.507,829.343Zm0,10.124H721.289a1.055,1.055,0,0,0,0,2.11h15.218A1.055,1.055,0,0,0,736.507,839.467Zm-19.565.31a1.054,1.054,0,1,0,.309.746A1.066,1.066,0,0,0,716.942,839.777Zm12.518-5.371H716.2a1.055,1.055,0,1,0,0,2.109H729.46A1.055,1.055,0,0,0,729.46,834.406Zm7.047,0h-2.585a1.055,1.055,0,0,0,0,2.109h2.585A1.055,1.055,0,1,0,736.507,834.406ZM727.4,844.544H716.2a1.055,1.055,0,0,0,0,2.11h11.2A1.055,1.055,0,0,0,727.4,844.544Zm9.108,0h-4.43a1.055,1.055,0,0,0,0,2.11h4.43A1.055,1.055,0,0,0,736.507,844.544Zm-17.78,10.126H716.2a1.055,1.055,0,1,0,0,2.109h2.531A1.055,1.055,0,1,0,718.727,854.67Zm13.918,0h-9.709a1.055,1.055,0,1,0,0,2.11h9.709A1.055,1.055,0,0,0,732.645,854.668Zm4.608,0.309a1.054,1.054,0,1,0,.309.746A1.063,1.063,0,0,0,737.253,854.977Zm-14.564-5.37H716.2a1.055,1.055,0,1,0,0,2.109h6.493A1.055,1.055,0,1,0,722.689,849.607Zm13.818,0h-9.351a1.055,1.055,0,0,0,0,2.109h9.351A1.055,1.055,0,1,0,736.507,849.607Zm0,10.123h-2.531a1.055,1.055,0,1,0,0,2.109h2.531A1.055,1.055,0,1,0,736.507,859.73Zm-7.952,0H716.2a1.055,1.055,0,1,0,0,2.109h12.359A1.055,1.055,0,1,0,728.555,859.731ZM762,842a1.056,1.056,0,0,0-.483-0.886l-3.9-2.518,3.9-2.519a1.054,1.054,0,0,0,0-1.772L750.97,827.5a1.054,1.054,0,0,0-1.144,0L739.279,834.3a1.055,1.055,0,0,0,0,1.772l3.9,2.519-3.9,2.518a1.056,1.056,0,0,0,0,1.773l3.9,2.518-3.9,2.518a1.056,1.056,0,0,0,0,1.773l3.315,2.14V864.57a2.323,2.323,0,0,1-2.321,2.32H712.43a2.323,2.323,0,0,1-2.321-2.32V824.7h32.485v3.163a1.055,1.055,0,1,0,2.109,0v-8.437a4.435,4.435,0,0,0-4.43-4.43H712.43a4.435,4.435,0,0,0-4.43,4.43V864.57a4.435,4.435,0,0,0,4.43,4.43h27.843a4.435,4.435,0,0,0,4.43-4.43V853.2l5.123,3.308a1.053,1.053,0,0,0,1.144,0l10.547-6.809a1.055,1.055,0,0,0,0-1.773l-3.9-2.518,3.9-2.518A1.056,1.056,0,0,0,762,842Zm-51.891-22.57a2.323,2.323,0,0,1,2.321-2.32h27.843a2.323,2.323,0,0,1,2.321,2.32v3.164H710.109v-3.164ZM741.8,835.19l8.6-5.554,8.6,5.554-3.9,2.519h0l-4.7,3.035-4.7-3.035h0ZM759,848.809l-8.6,5.553-8.6-5.553,3.329-2.15,4.7,3.036a1.058,1.058,0,0,0,1.144,0l4.7-3.036Zm-8.6-1.256L741.8,842l3.329-2.149,4.7,3.036a1.058,1.058,0,0,0,1.144,0l4.7-3.036L759,842Z" transform="translate(-708 -815)"/>
</svg>
