<?xml version="1.0" encoding="iso-8859-1"?>
<!-- Generator: Adobe Illustrator 19.0.1, SVG Export Plug-In . SVG Version: 6.00 Build 0)  -->
<svg version="1.1" xmlns="http://www.w3.org/2000/svg" xmlns:xlink="http://www.w3.org/1999/xlink" x="0px" y="0px"
	 viewBox="0 0 58.298 59.526" style="enable-background:new 0 0 58.298 59.526;" xml:space="preserve">
<g id="Layer_1">
	
		<circle id="XMLID_6891_" style="fill:#2D506D;stroke:#2D506D;stroke-width:2;stroke-miterlimit:10;" cx="29.149" cy="30.377" r="28.149"/>
	<circle id="XMLID_6892_" style="fill:#FFFFFF;" cx="29.149" cy="28.149" r="28.149"/>
	<polygon id="XMLID_6894_" style="fill:#927851;" points="24.476,38.443 41.57,28.018 24.476,17.594 	"/>
</g>
<g id="Layer_2">
</g>
</svg>
