<?xml version="1.0" encoding="utf-8"?>
<!-- Generator: Adobe Illustrator 19.0.0, SVG Export Plug-In . SVG Version: 6.00 Build 0)  -->
<svg version="1.1" id="Layer_1" xmlns="http://www.w3.org/2000/svg" xmlns:xlink="http://www.w3.org/1999/xlink" x="0px" y="0px"
	 viewBox="0 0 78 52" style="enable-background:new 0 0 78 52;" xml:space="preserve">
<style type="text/css">
	.st0{fill:#ED3424;}
	.st1{fill:#00B084;}
	.st2{fill:#FFFFFF;}
	.st3{fill:none;}
</style>
<rect id="XMLID_106_" x="12.2" y="0" class="st0" width="65.8" height="34.6"/>
<rect id="XMLID_105_" x="12.2" y="34.6" class="st1" width="65.8" height="17.3"/>
<rect id="XMLID_104_" y="0" class="st2" width="11.5" height="51.9"/>
<rect id="XMLID_103_" x="11.5" y="0" class="st2" width="0.7" height="51.9"/>
<g id="XMLID_42_">
	<g id="XMLID_44_">
		<g id="XMLID_91_">
			<polygon id="XMLID_102_" class="st0" points="2.8,9.1 2.8,9.7 3.1,9.7 3.1,10.4 3.4,10.4 3.4,11.2 3.1,11.2 3.1,11.9 2.8,11.9 
				2.8,12.6 2.3,12.6 2.3,11.9 2.1,11.9 2.1,11.2 1.7,11.2 1.7,10.4 2.1,10.4 2.1,9.7 2.3,9.7 2.3,9.1 			"/>
			<polygon id="XMLID_101_" class="st0" points="2.8,42.9 2.8,42.2 3.1,42.2 3.1,41.5 3.4,41.5 3.4,40.8 3.1,40.8 3.1,40 2.8,40 
				2.8,39.4 2.3,39.4 2.3,40 2.1,40 2.1,40.8 1.7,40.8 1.7,41.5 2.1,41.5 2.1,42.2 2.3,42.2 2.3,42.9 			"/>
			<polygon id="XMLID_100_" class="st0" points="6,6.3 6,7.3 6.4,7.3 6.4,8.4 6.9,8.4 6.9,9.1 7.5,9.1 7.5,10.1 7.9,10.1 7.9,9.1 
				8.5,9.1 8.5,8.4 8.9,8.4 8.9,7.3 9.4,7.3 9.4,6.3 9.8,6.3 9.8,5 9.4,5 9.4,3.9 8.9,3.9 8.9,2.6 8.5,2.6 8.5,1.8 6.9,1.8 6.9,2.6 
				6.4,2.6 6.4,3.9 6,3.9 6,5 5.5,5 5.5,3.9 5.1,3.9 5.1,2.6 4.6,2.6 4.6,1.8 3.1,1.8 3.1,2.6 2.6,2.6 2.6,3.9 2.2,3.9 2.2,5 1.7,5 
				1.7,6.3 2.2,6.3 2.2,7.3 2.6,7.3 2.6,8.4 3.1,8.4 3.1,9.1 3.6,9.1 3.6,10.1 4,10.1 4,9.1 4.6,9.1 4.6,8.4 5.1,8.4 5.1,7.3 
				5.5,7.3 5.5,6.3 			"/>
			<polygon id="XMLID_99_" class="st0" points="8.8,9.1 8.8,9.7 8.5,9.7 8.5,10.4 8.2,10.4 8.2,11.2 8.5,11.2 8.5,11.9 8.8,11.9 
				8.8,12.6 9.2,12.6 9.2,11.9 9.5,11.9 9.5,11.2 9.8,11.2 9.8,10.4 9.5,10.4 9.5,9.7 9.2,9.7 9.2,9.1 			"/>
			<polygon id="XMLID_98_" class="st0" points="5.9,11.2 5.9,11.9 6.2,11.9 6.2,12.6 6.6,12.6 6.6,11.9 6.9,11.9 6.9,11.2 7.2,11.2 
				7.2,10.4 6.9,10.4 6.9,9.7 6.6,9.7 6.6,9.1 6.2,9.1 6.2,9.7 5.9,9.7 5.9,10.4 5.6,10.4 5.6,9.7 5.3,9.7 5.3,9.1 4.9,9.1 4.9,9.7 
				4.6,9.7 4.6,10.4 4.3,10.4 4.3,11.2 4.6,11.2 4.6,11.9 4.9,11.9 4.9,12.6 5.3,12.6 5.3,11.9 5.6,11.9 5.6,11.2 			"/>
			<polygon id="XMLID_97_" class="st0" points="6,45.6 6,44.6 6.4,44.6 6.4,43.6 6.9,43.6 6.9,42.8 7.5,42.8 7.5,41.8 7.9,41.8 
				7.9,42.8 8.5,42.8 8.5,43.6 8.9,43.6 8.9,44.6 9.4,44.6 9.4,45.6 9.8,45.6 9.8,46.9 9.4,46.9 9.4,48 8.9,48 8.9,49.4 8.5,49.4 
				8.5,50.2 6.9,50.2 6.9,49.4 6.4,49.4 6.4,48 6,48 6,46.9 5.5,46.9 5.5,48 5.1,48 5.1,49.4 4.6,49.4 4.6,50.2 3.1,50.2 3.1,49.4 
				2.6,49.4 2.6,48 2.2,48 2.2,46.9 1.7,46.9 1.7,45.6 2.2,45.6 2.2,44.6 2.6,44.6 2.6,43.6 3.1,43.6 3.1,42.8 3.6,42.8 3.6,41.8 
				4,41.8 4,42.8 4.6,42.8 4.6,43.6 5.1,43.6 5.1,44.6 5.5,44.6 5.5,45.6 			"/>
			<polygon id="XMLID_96_" class="st0" points="8.8,42.9 8.8,42.2 8.5,42.2 8.5,41.5 8.2,41.5 8.2,40.8 8.5,40.8 8.5,40 8.8,40 
				8.8,39.4 9.2,39.4 9.2,40 9.5,40 9.5,40.8 9.8,40.8 9.8,41.5 9.5,41.5 9.5,42.2 9.2,42.2 9.2,42.9 			"/>
			<polygon id="XMLID_95_" class="st0" points="5.9,41.5 5.9,42.2 6.2,42.2 6.2,42.9 6.6,42.9 6.6,42.2 6.9,42.2 6.9,41.5 7.2,41.5 
				7.2,40.8 6.9,40.8 6.9,40 6.6,40 6.6,39.4 6.2,39.4 6.2,40 5.9,40 5.9,40.8 5.6,40.8 5.6,40 5.3,40 5.3,39.4 4.9,39.4 4.9,40 
				4.6,40 4.6,40.8 4.3,40.8 4.3,41.5 4.6,41.5 4.6,42.2 4.9,42.2 4.9,42.9 5.3,42.9 5.3,42.2 5.6,42.2 5.6,41.5 			"/>
			<polygon id="XMLID_94_" class="st0" points="6.1,36.1 6.1,37.4 6.6,37.4 6.6,38.5 7.1,38.5 7.1,39.5 7.4,39.5 7.4,40.2 7.9,40.2 
				7.9,39.5 8.3,39.5 8.3,38.5 8.9,38.5 8.9,37.4 9.5,37.4 9.5,36.4 9.8,36.4 9.8,34.9 9.5,34.9 9.5,33.9 9,33.9 9,32.4 8.6,32.4 
				8.6,31.4 8.1,31.4 8.1,32.4 7.6,32.4 7.6,33.9 7.3,33.9 7.3,34.9 7.7,34.9 7.7,36.4 7.2,36.4 7.2,35.4 6.8,35.4 6.8,33.6 
				6.2,33.6 6.2,32.3 6.7,32.3 6.7,31.3 7.2,31.3 7.2,30.1 7.7,30.1 7.7,28.8 8.1,28.8 8.1,27.6 8.6,27.6 8.6,28.8 9,28.8 9,29.7 
				9.3,29.7 9.3,30.9 9.6,30.9 9.6,31.9 9.8,31.9 9.8,28.3 9.5,28.3 9.5,27.1 9,27.1 9,26.4 8.6,26.4 8.6,25.6 9,25.6 9,24.8 
				9.5,24.8 9.5,23.6 9.8,23.6 9.8,20.1 9.6,20.1 9.6,21 9.3,21 9.3,22.2 9,22.2 9,23.2 8.6,23.2 8.6,24.3 8.1,24.3 8.1,23.1 
				7.7,23.1 7.7,21.8 7.2,21.8 7.2,20.6 6.7,20.6 6.7,19.6 6.2,19.6 6.2,18.3 6.8,18.3 6.8,16.5 7.2,16.5 7.2,15.6 7.7,15.6 
				7.7,17.1 7.3,17.1 7.3,18.1 7.6,18.1 7.6,19.5 8.1,19.5 8.1,20.5 8.6,20.5 8.6,19.5 9,19.5 9,18.1 9.5,18.1 9.5,17.1 9.8,17.1 
				9.8,15.6 9.5,15.6 9.5,14.6 8.9,14.6 8.9,13.4 8.3,13.4 8.3,12.4 7.9,12.4 7.9,11.8 7.4,11.8 7.4,12.4 7.1,12.4 7.1,13.5 
				6.6,13.5 6.6,14.6 6.1,14.6 6.1,15.8 5.4,15.8 5.4,14.6 5,14.6 5,13.5 4.4,13.5 4.4,12.4 4.1,12.4 4.1,11.8 3.6,11.8 3.6,12.4 
				3.3,12.4 3.3,13.4 2.6,13.4 2.6,14.6 2.1,14.6 2.1,15.6 1.7,15.6 1.7,17.1 2.1,17.1 2.1,18.1 2.5,18.1 2.5,19.5 3,19.5 3,20.5 
				3.4,20.5 3.4,19.5 3.9,19.5 3.9,18.1 4.3,18.1 4.3,17.1 3.8,17.1 3.8,15.6 4.4,15.6 4.4,16.5 4.8,16.5 4.8,18.3 5.3,18.3 
				5.3,19.6 4.8,19.6 4.8,20.6 4.3,20.6 4.3,21.8 3.9,21.8 3.9,23.1 3.4,23.1 3.4,24.3 2.9,24.3 2.9,23.2 2.6,23.2 2.6,22.2 
				2.2,22.2 2.2,21 2,21 2,20.1 1.7,20.1 1.7,23.6 2.1,23.6 2.1,24.8 2.5,24.8 2.5,25.6 2.9,25.6 2.9,26.4 2.5,26.4 2.5,27.1 
				2.1,27.1 2.1,28.3 1.7,28.3 1.7,31.9 2,31.9 2,30.9 2.2,30.9 2.2,29.7 2.6,29.7 2.6,28.8 2.9,28.8 2.9,27.6 3.4,27.6 3.4,28.8 
				3.9,28.8 3.9,30.1 4.3,30.1 4.3,31.3 4.8,31.3 4.8,32.3 5.3,32.3 5.3,33.6 4.8,33.6 4.8,35.4 4.4,35.4 4.4,36.4 3.8,36.4 
				3.8,34.9 4.3,34.9 4.3,33.9 3.9,33.9 3.9,32.4 3.4,32.4 3.4,31.4 3,31.4 3,32.4 2.5,32.4 2.5,33.9 2.1,33.9 2.1,34.9 1.7,34.9 
				1.7,36.4 2.1,36.4 2.1,37.4 2.6,37.4 2.6,38.5 3.3,38.5 3.3,39.5 3.6,39.5 3.6,40.2 4.1,40.2 4.1,39.5 4.4,39.5 4.4,38.5 5,38.5 
				5,37.4 5.4,37.4 5.4,36.1 			"/>
			<polygon id="XMLID_93_" class="st2" points="6.1,31.7 6.1,30.6 6.5,30.6 6.5,29.6 6.9,29.6 6.9,28.3 7.4,28.3 7.4,27.1 7.9,27.1 
				7.9,26.4 8.2,26.4 8.2,25.6 7.9,25.6 7.9,24.8 7.4,24.8 7.4,23.6 6.9,23.6 6.9,22.4 6.5,22.4 6.5,21.3 6.1,21.3 6.1,20.3 
				5.4,20.3 5.4,21.3 5.1,21.3 5.1,22.4 4.7,22.4 4.7,23.6 4.2,23.6 4.2,24.8 3.7,24.8 3.7,25.6 3.3,25.6 3.3,26.4 3.7,26.4 
				3.7,27.1 4.2,27.1 4.2,28.3 4.7,28.3 4.7,29.6 5.1,29.6 5.1,30.6 5.4,30.6 5.4,31.7 			"/>
			<polygon id="XMLID_92_" class="st0" points="6,26.9 6,27.5 6.4,27.5 6.4,28.1 6.7,28.1 6.7,26.9 6.4,26.9 6.4,26.4 6.1,26.4 
				6.1,25.6 6.4,25.6 6.4,25 6.7,25 6.7,23.8 6.4,23.8 6.4,24.4 6,24.4 6,25 5.5,25 5.5,24.4 5.2,24.4 5.2,23.8 4.8,23.8 4.8,25 
				5.2,25 5.2,25.6 5.5,25.6 5.5,26.4 5.2,26.4 5.2,26.9 4.8,26.9 4.8,28.1 5.2,28.1 5.2,27.5 5.5,27.5 5.5,26.9 			"/>
		</g>
		<g id="XMLID_86_">
			<polygon id="XMLID_90_" class="st2" points="4.1,8.2 4.1,7.3 4.5,7.3 4.5,6.3 4.9,6.3 4.9,5.1 4.5,5.1 4.5,4.1 4.1,4.1 4.1,3.2 
				3.6,3.2 3.6,4.1 3.2,4.1 3.2,5.1 2.8,5.1 2.8,6.3 3.2,6.3 3.2,7.3 3.6,7.3 3.6,8.2 			"/>
			<polygon id="XMLID_89_" class="st2" points="4.1,43.8 4.1,44.6 4.5,44.6 4.5,45.7 4.9,45.7 4.9,46.8 4.5,46.8 4.5,47.9 4.1,47.9 
				4.1,48.8 3.6,48.8 3.6,47.9 3.2,47.9 3.2,46.8 2.8,46.8 2.8,45.7 3.2,45.7 3.2,44.6 3.6,44.6 3.6,43.8 			"/>
			<polygon id="XMLID_88_" class="st2" points="7.5,8.2 7.5,7.3 7.1,7.3 7.1,6.3 6.6,6.3 6.6,5.1 7.1,5.1 7.1,4.1 7.5,4.1 7.5,3.2 
				7.9,3.2 7.9,4.1 8.3,4.1 8.3,5.1 8.8,5.1 8.8,6.3 8.3,6.3 8.3,7.3 7.9,7.3 7.9,8.2 			"/>
			<polygon id="XMLID_87_" class="st2" points="7.5,43.8 7.5,44.6 7.1,44.6 7.1,45.7 6.6,45.7 6.6,46.8 7.1,46.8 7.1,47.9 7.5,47.9 
				7.5,48.8 7.9,48.8 7.9,47.9 8.3,47.9 8.3,46.8 8.8,46.8 8.8,45.7 8.3,45.7 8.3,44.6 7.9,44.6 7.9,43.8 			"/>
		</g>
		<g id="XMLID_54_">
			<rect id="XMLID_85_" x="1.7" y="2.6" class="st0" width="0.4" height="1.1"/>
			<rect id="XMLID_84_" x="5.6" y="7.7" class="st0" width="0.3" height="1.1"/>
			<rect id="XMLID_83_" x="5.6" y="1.8" class="st0" width="0.3" height="1.2"/>
			<rect id="XMLID_82_" x="5.6" y="22.4" class="st0" width="0.3" height="1.2"/>
			<rect id="XMLID_81_" x="1.7" y="7.7" class="st0" width="0.4" height="1.1"/>
			<rect id="XMLID_80_" x="1.7" y="12.9" class="st0" width="0.4" height="1"/>
			<rect id="XMLID_79_" x="1.7" y="18.4" class="st0" width="0.4" height="1"/>
			<rect id="XMLID_78_" x="1.7" y="48.3" class="st0" width="0.4" height="1"/>
			<rect id="XMLID_77_" x="3.7" y="45.7" class="st0" width="0.3" height="1.2"/>
			<rect id="XMLID_76_" x="5.6" y="43.2" class="st0" width="0.3" height="1.1"/>
			<rect id="XMLID_75_" x="5.6" y="49" class="st0" width="0.3" height="1.2"/>
			<rect id="XMLID_74_" x="5.6" y="28.3" class="st0" width="0.3" height="1.2"/>
			<rect id="XMLID_73_" x="1.7" y="43.1" class="st0" width="0.4" height="1.1"/>
			<rect id="XMLID_72_" x="1.7" y="37.9" class="st0" width="0.4" height="1.2"/>
			<rect id="XMLID_71_" x="1.7" y="32.5" class="st0" width="0.4" height="1.1"/>
			<rect id="XMLID_70_" x="1.7" y="25.4" class="st0" width="0.4" height="1.1"/>
			<rect id="XMLID_69_" x="4.3" y="25.4" class="st0" width="0.3" height="1.1"/>
			<rect id="XMLID_68_" x="9.4" y="2.6" class="st0" width="0.4" height="1.1"/>
			<rect id="XMLID_67_" x="7.5" y="5.1" class="st0" width="0.3" height="1.2"/>
			<rect id="XMLID_66_" x="9.4" y="7.7" class="st0" width="0.4" height="1.1"/>
			<rect id="XMLID_65_" x="9.4" y="12.9" class="st0" width="0.4" height="1"/>
			<rect id="XMLID_64_" x="9.4" y="18.4" class="st0" width="0.4" height="1"/>
			<rect id="XMLID_63_" x="9.4" y="48.3" class="st0" width="0.4" height="1"/>
			<rect id="XMLID_62_" x="7.5" y="45.7" class="st0" width="0.3" height="1.2"/>
			<rect id="XMLID_61_" x="9.4" y="43.1" class="st0" width="0.4" height="1.1"/>
			<rect id="XMLID_60_" x="9.4" y="37.9" class="st0" width="0.4" height="1.2"/>
			<rect id="XMLID_59_" x="9.4" y="32.5" class="st0" width="0.4" height="1.1"/>
			<rect id="XMLID_58_" x="9.4" y="25.4" class="st0" width="0.4" height="1.1"/>
			<rect id="XMLID_57_" x="7" y="25.4" class="st0" width="0.3" height="1.1"/>
			<rect id="XMLID_56_" x="5.6" y="12.9" class="st0" width="0.3" height="1"/>
			<rect id="XMLID_55_" x="5.6" y="38" class="st0" width="0.3" height="1.2"/>
		</g>
		<g id="XMLID_45_">
			<rect id="XMLID_53_" x="2.4" y="10.5" class="st2" width="0.2" height="0.7"/>
			<rect id="XMLID_52_" x="5" y="10.5" class="st2" width="0.2" height="0.7"/>
			<rect id="XMLID_51_" x="2.4" y="40.8" class="st2" width="0.2" height="0.7"/>
			<rect id="XMLID_50_" x="5" y="40.8" class="st2" width="0.2" height="0.7"/>
			<rect id="XMLID_49_" x="8.9" y="10.5" class="st2" width="0.2" height="0.7"/>
			<rect id="XMLID_48_" x="6.3" y="10.5" class="st2" width="0.2" height="0.7"/>
			<rect id="XMLID_47_" x="8.9" y="40.8" class="st2" width="0.2" height="0.7"/>
			<rect id="XMLID_46_" x="6.3" y="40.8" class="st2" width="0.2" height="0.7"/>
		</g>
	</g>
	<rect id="XMLID_43_" x="3.7" y="5.1" class="st2" width="0.3" height="1.2"/>
</g>
<rect id="XMLID_41_" x="0.1" y="0.1" class="st3" width="11.4" height="51.8"/>
<g id="XMLID_40_">
</g>
<g id="XMLID_107_">
</g>
<g id="XMLID_108_">
</g>
<g id="XMLID_109_">
</g>
<g id="XMLID_110_">
</g>
<g id="XMLID_111_">
</g>
<g id="XMLID_112_">
</g>
<g id="XMLID_113_">
</g>
<g id="XMLID_114_">
</g>
<g id="XMLID_115_">
</g>
<g id="XMLID_116_">
</g>
<g id="XMLID_117_">
</g>
<g id="XMLID_118_">
</g>
<g id="XMLID_119_">
</g>
<g id="XMLID_120_">
</g>
</svg>
