<?xml version="1.0" encoding="utf-8"?>
<!-- Generator: Adobe Illustrator 19.0.0, SVG Export Plug-In . SVG Version: 6.00 Build 0)  -->
<svg version="1.1" id="Layer_1" xmlns="http://www.w3.org/2000/svg" xmlns:xlink="http://www.w3.org/1999/xlink" x="0px" y="0px"
	 viewBox="0 15 158 132" style="enable-background:new 0 15 158 132;" xml:space="preserve">
<style type="text/css">
	.st0{fill:#FFFFFF;}
	.st1{fill:#999999;}
	.st2{fill:#B3B3B3;}
	.st3{fill:#CCCCCC;}
</style>
<polygon id="XMLID_5961_" class="st0" points="122.4,15 157.9,77 122.4,139 50.7,139 14.9,77 49.7,15 "/>
<polygon id="XMLID_4079_" class="st1" points="49.7,15 35.2,22 0.2,83.9 14.9,76.5 "/>
<polygon id="XMLID_4458_" class="st2" points="14.9,76 0.4,84 36.2,147 50.7,139 "/>
<polygon id="XMLID_4490_" class="st3" points="50.6,139 36.2,147 109,147 123.4,139 "/>
<g id="XMLID_1_">
</g>
<g id="XMLID_2_">
</g>
<g id="XMLID_3_">
</g>
<g id="XMLID_4_">
</g>
<g id="XMLID_5_">
</g>
<g id="XMLID_6_">
</g>
<g id="XMLID_7_">
</g>
<g id="XMLID_8_">
</g>
<g id="XMLID_9_">
</g>
<g id="XMLID_10_">
</g>
<g id="XMLID_11_">
</g>
<g id="XMLID_12_">
</g>
<g id="XMLID_13_">
</g>
<g id="XMLID_14_">
</g>
<g id="XMLID_15_">
</g>
</svg>
