<svg xmlns="http://www.w3.org/2000/svg" width="16.031" height="19.969" viewBox="0 0 16.031 19.969">
  <defs>
    <style>
      .cls-1 {
        fill: #bad0d8;
        fill-rule: evenodd;
      }
    </style>
  </defs>
  <path id="иконка" class="cls-1" d="M560.984,462.516L566.516,468h-5.532v-5.484Zm-8.39-.938a2.08,2.08,0,0,0-.61,1.406v16.032a2.08,2.08,0,0,0,.61,1.406,1.908,1.908,0,0,0,1.406.562h12a1.906,1.906,0,0,0,1.406-.562,2.085,2.085,0,0,0,.61-1.406v-12l-6-6H554A1.908,1.908,0,0,0,552.594,461.578ZM554,477v-2.016h9V477h-9Zm0-3.984V471h12v2.016H554Z" transform="translate(-552 -461.031)"/>
</svg>
