<?xml version="1.0" encoding="utf-8"?>
<!-- Generator: Adobe Illustrator 19.0.0, SVG Export Plug-In . SVG Version: 6.00 Build 0)  -->
<svg version="1.1" id="Layer_1" xmlns="http://www.w3.org/2000/svg" xmlns:xlink="http://www.w3.org/1999/xlink" x="0px" y="0px"
	 viewBox="0 0 576 130" style="enable-background:new 0 0 576 130;" xml:space="preserve">
<style type="text/css">
	.st0{fill:none;stroke:#D1D8E9;stroke-miterlimit:10;}
</style>
<g>
	<ellipse class="st0" cx="4.2" cy="126.9" rx="2.5" ry="2.5"/>
	<line id="XMLID_28_" class="st0" x1="7.1" y1="126.9" x2="529" y2="126.9"/>
	<polyline class="st0" points="528.5,126.4 528.5,1.4 574.7,1.4 	"/>
</g>
<g id="XMLID_27_">
</g>
<g id="XMLID_29_">
</g>
<g id="XMLID_30_">
</g>
<g id="XMLID_31_">
</g>
<g id="XMLID_32_">
</g>
<g id="XMLID_33_">
</g>
<g id="XMLID_34_">
</g>
<g id="XMLID_35_">
</g>
<g id="XMLID_36_">
</g>
<g id="XMLID_37_">
</g>
<g id="XMLID_38_">
</g>
<g id="XMLID_39_">
</g>
<g id="XMLID_40_">
</g>
<g id="XMLID_41_">
</g>
<g id="XMLID_42_">
</g>
</svg>
