<?xml version="1.0" encoding="utf-8"?>
<!-- Generator: Adobe Illustrator 19.0.0, SVG Export Plug-In . SVG Version: 6.00 Build 0)  -->
<svg version="1.1" id="Layer_1" xmlns="http://www.w3.org/2000/svg" xmlns:xlink="http://www.w3.org/1999/xlink" x="0px" y="0px"
	 viewBox="-1267 340 24 22" enable-background="new -1267 340 24 22" xml:space="preserve">
<g id="XMLID_3330_">
	<polygon id="XMLID_3333_" fill="#4B84A3" points="-1248.8,362 -1243,352 -1248.8,342 -1260.5,342 -1266.3,352 -1260.5,362 	"/>
	<polygon id="XMLID_3332_" fill="#629DB2" points="-1249.5,361 -1243.7,350.5 -1249.5,340 -1261.2,340 -1267,350.5 -1261.2,361 	"/>
	<polygon id="XMLID_3420_" fill="#FFFFFF" points="-1256.2,355.5 -1260.8,350.4 -1258.5,348.4 -1256.4,350.8 -1251.5,344.7 
		-1249.1,346.5 	"/>
</g>
</svg>
