<?xml version="1.0" encoding="utf-8"?>
<!-- Generator: Adobe Illustrator 19.0.0, SVG Export Plug-In . SVG Version: 6.00 Build 0)  -->
<svg version="1.1" id="Layer_1" xmlns="http://www.w3.org/2000/svg" xmlns:xlink="http://www.w3.org/1999/xlink" x="0px" y="0px"
	 viewBox="0 0 220 156" style="enable-background:new 0 0 220 156;" xml:space="preserve">
<style type="text/css">
	.st0{fill-rule:evenodd;clip-rule:evenodd;fill:#519DAF;}
	.st1{fill-rule:evenodd;clip-rule:evenodd;fill:#C1E5EA;}
	.st2{fill-rule:evenodd;clip-rule:evenodd;fill:#83BDCC;}
	.st3{clip-path:url(#XMLID_20_);fill-rule:evenodd;clip-rule:evenodd;fill:#346C82;}
	.st4{clip-path:url(#XMLID_21_);fill-rule:evenodd;clip-rule:evenodd;fill:#235868;}
</style>
<g id="XMLID_587_">
	<g id="XMLID_588_">
		<polygon id="XMLID_592_" class="st0" points="46,91 0,122.4 44.8,156 175,156 220,122.4 175,91 		"/>
		<rect id="XMLID_591_" x="46" class="st1" width="129" height="91"/>
		<polygon id="XMLID_590_" class="st2" points="46,0.1 0,32.6 0,122.4 46,91 		"/>
		<polygon id="XMLID_589_" class="st2" points="175,0.2 220,30.5 220,122.4 175,91 		"/>
		<g id="XMLID_222_">
			<defs>
				<rect id="XMLID_224_" x="61.7" y="13.4" width="97.3" height="64.7"/>
			</defs>
			<use xlink:href="#XMLID_224_"  style="overflow:visible;fill-rule:evenodd;clip-rule:evenodd;fill:#519DAF;"/>
			<clipPath id="XMLID_20_">
				<use xlink:href="#XMLID_224_"  style="overflow:visible;"/>
			</clipPath>
			<polyline id="XMLID_225_" class="st3" points="169.7,4.4 159,13.4 61.7,78.1 54.7,7.4 168,4.4 			"/>
		</g>
	</g>
</g>
<g id="XMLID_1_">
	<defs>
		<polygon id="XMLID_2_" points="54,103 21.9,124.5 54,146 163.8,146 197.8,124.5 163.8,103 		"/>
	</defs>
	<use xlink:href="#XMLID_2_"  style="overflow:visible;fill-rule:evenodd;clip-rule:evenodd;fill:#346C82;"/>
	<clipPath id="XMLID_21_">
		<use xlink:href="#XMLID_2_"  style="overflow:visible;"/>
	</clipPath>
	<polygon id="XMLID_3_" class="st4" points="63.5,150.3 54,144.6 54,76 -9,76 -8,179 235,179 235,80.6 164,75.9 164,151.6 	"/>
</g>
<g id="XMLID_4_">
</g>
<g id="XMLID_5_">
</g>
<g id="XMLID_6_">
</g>
<g id="XMLID_7_">
</g>
<g id="XMLID_8_">
</g>
<g id="XMLID_9_">
</g>
<g id="XMLID_10_">
</g>
<g id="XMLID_11_">
</g>
<g id="XMLID_12_">
</g>
<g id="XMLID_13_">
</g>
<g id="XMLID_14_">
</g>
<g id="XMLID_15_">
</g>
<g id="XMLID_16_">
</g>
<g id="XMLID_17_">
</g>
<g id="XMLID_18_">
</g>
</svg>
