<?xml version="1.0" encoding="utf-8"?>
<!-- Generator: Adobe Illustrator 19.0.0, SVG Export Plug-In . SVG Version: 6.00 Build 0)  -->
<svg version="1.1" id="Layer_1" xmlns="http://www.w3.org/2000/svg" xmlns:xlink="http://www.w3.org/1999/xlink" x="0px" y="0px"
	 viewBox="0 0 2560 120" enable-background="new 0 0 2560 120" xml:space="preserve">
<polyline id="XMLID_616_" fill="none" stroke="#9CD6E5" stroke-width="2" stroke-miterlimit="10" points="2,107 1014.8,107 
	1069.3,13 2560,13 "/>
<line id="XMLID_614_" fill="none" stroke="#9CD6E5" stroke-width="2" stroke-miterlimit="10" x1="1062" y1="47" x2="2559" y2="47"/>
<g id="XMLID_612_">
	<polygon id="XMLID_22_" fill="#83BDCC" points="1035.1,44.8 1042.6,57.8 1057.9,57.8 1050.4,44.7 	"/>
</g>
<path id="XMLID_515_" fill="#4B84A3" d="M1042.8,31.8l-7.6,13c0,0,14.9,0,15.2-0.1s7.4-13,7.4-13L1042.8,31.8z"/>
<polygon id="XMLID_514_" fill="#9CD6E5" points="1058,31.6 1065.5,44.5 1057.9,57.8 1050.4,44.7 "/>
<g id="XMLID_42_">
</g>
<g id="XMLID_43_">
</g>
<g id="XMLID_44_">
</g>
<g id="XMLID_45_">
</g>
<g id="XMLID_46_">
</g>
<g id="XMLID_47_">
</g>
<g id="XMLID_48_">
</g>
<g id="XMLID_49_">
</g>
<g id="XMLID_50_">
</g>
<g id="XMLID_51_">
</g>
<g id="XMLID_52_">
</g>
<g id="XMLID_53_">
</g>
<g id="XMLID_54_">
</g>
<g id="XMLID_55_">
</g>
<g id="XMLID_56_">
</g>
</svg>
